{
  "dependencies": {
    "ember-cli-babel": {
      "version": "@@ember-cli-babel_VERSION"
    },
    "ember-cli-htmlbars": {
      "version": "@@ember-cli-htmlbars_VERSION"
    },
    "ember-cli-sass": {
      "version": "@@ember-cli-sass_VERSION"
    },
    "wb-ui-theme": {
      "version": "@@wb-ui-theme_VERSION",
      "dependencies": {
       "ember-cli-babel": {
        "version": "@@ember-cli-babel_VERSION"
       },
       "ember-cli-htmlbars": {
         "version": "@@ember-cli-htmlbars_VERSION"
       },
       "ember-cli-sass": {
         "version": "@@ember-cli-sass_VERSION"
       }
      }
    }
  }
}
